{
    "results": [
        {
            "id": 1,
            "menu": "Nasi Rendang",
            "Harga": 16000
        },
        {
            "id": 2,
            "menu": "Nasi Ayam",
            "Harga": 15000
        },
        {
            "id": 3,
            "menu": "Nasi Ikan",
            "Harga": 15000
        },
        {
            "id": 4,
            "menu": "Nasi Hati",
            "Harga": 12000
        },
        {
            "id": 5,
            "menu": "Nasi Telur",
            "Harga": 10000
        }
    ],
    "status": "OK"
}