{
    "results": [
        {
            "id": 1,
            "menu": "Nasi Ikan Bakar Kakap",
            "Harga": 45000
        },
        {
            "id": 2,
            "menu": "Nasi Ikan Bakar Kambong",
            "Harga": 25000
        },
        {
            "id": 3,
            "menu": "Nasi Ikan Bakar",
            "Harga": 24000
        },
        {
            "id": 4,
            "menu": "Nasi Ikan Goreng",
            "Harga": 19000
        },
        {
            "id": 5,
            "menu": "Nasi Ikan Gule",
            "Harga": 19000
        },
        {
            "id": 6,
            "menu": "Nasi Sop Buntut ",
            "Harga": 35000
        },
        {
            "id": 7,
            "menu": "Nasi Cumi",
            "Harga": 35000
        },
        {
            "id": 8,
            "menu": "Nasi Udang",
            "Harga": 30000
        },
        {
            "id": 9,
            "menu": "Nasi Kepala Kakap",
            "Harga": 30000
        },
        {
            "id": 10,
            "menu": "Nasi Cincang ",
            "Harga": 25000
        },
        {
            "id": 11,
            "menu": "Nasi Dendeng Bakar",
            "Harga": 25000
        },
        {
            "id": 12,
            "menu": "Nasi Dendeng Gr",
            "Harga": 24000
        },
        {
            "id": 13,
            "menu": "Nasi Dendeng Batoko",
            "Harga": 21000
        },
        {
            "id": 14,
            "menu": "Nasi Ayam Pop",
            "Harga": 25000
        },
        {
            "id": 15,
            "menu": "Nasi Ayam Goreng",
            "Harga": 24000
        },
        {
            "id": 16,
            "menu": "Nasi Ayam Gule",
            "Harga": 24000
        },
        {
            "id": 17,
            "menu": "Nasi Ayam Bakar",
            "Harga": 24000
        },
        {
            "id": 18,
            "menu": "Nasi Rendang",
            "Harga": 21000
        },
        {
            "id": 19,
            "menu": "Nasi Kikil",
            "Harga": 21000
        },
        {
            "id": 20,
            "menu": "Nasi Asam Pedes",
            "Harga": 19000
        },
        {
            "id": 21,
            "menu": "Nasi Paru",
            "Harga": 19000
        },
        {
            "id": 22,
            "menu": "Nasi Hati",
            "Harga": 19000
        },
        {
            "id": 23,
            "menu": "Nasi Limpa",
            "Harga": 19000
        },
        {
            "id": 24,
            "menu": "Nasi Otak",
            "Harga": 19000
        },
        {
            "id": 25,
            "menu": "Nasi Telur Dadar",
            "Harga": 15000
        },
        {
            "id": 26,
            "menu": "Nasi Perkedel Kentang",
            "Harga": 14000
        },
        {
            "id": 27,
            "menu": "Nasi Telur Bulat",
            "Harga": 13000
        },
        {
            "id": 28,
            "menu": "Nasi Tempe Goreng",
            "Harga": 10000
        },
        {
            "id": 29,
            "menu": "Nasi Tahu Goreng ",
            "Harga": 10000
        },
        {
            "id": 30,
            "menu": "Nasi ",
            "Harga": 10000
        }
    ],
    "status": "OK"
}